Library\Bee\artifacts\mvdfrm\Unity.Services.Core.ref.dll_20255DC58CC224E8.mvfrm
Library\Bee\artifacts\mvdfrm\UnityEngine.UI.ref.dll_6C1073D56147DE5F.mvfrm
Library\Bee\artifacts\mvdfrm\Unity.Burst.Cecil.dll_D272CAE7E2797E45.mvfrm
Library\Bee\artifacts\mvdfrm\Unity.Burst.Cecil.Mdb.dll_8D0BCCC2B6E1AAC2.mvfrm
Library\Bee\artifacts\mvdfrm\Unity.Burst.Cecil.Pdb.dll_A45E45323596AC45.mvfrm
Library\Bee\artifacts\mvdfrm\Unity.Burst.Cecil.Rocks.dll_BAA820B106489705.mvfrm
Library\Bee\artifacts\mvdfrm\Unity.Burst.Unsafe.dll_C3B00D0E0DCF3BBE.mvfrm
Library\Bee\artifacts\mvdfrm\Unity.VisualScripting.Antlr3.Runtime.dll_EDABFA59CAD081C6.mvfrm
Library\Bee\artifacts\mvdfrm\UnityEngine.AccessibilityModule.dll_F3C6E4526F6325B2.mvfrm
Library\Bee\artifacts\mvdfrm\UnityEngine.AIModule.dll_B4B079795C1BFC28.mvfrm
Library\Bee\artifacts\mvdfrm\UnityEngine.AndroidJNIModule.dll_34E533317710D5E6.mvfrm
Library\Bee\artifacts\mvdfrm\UnityEngine.AnimationModule.dll_D7393BE4C84447D8.mvfrm
Library\Bee\artifacts\mvdfrm\UnityEngine.AssetBundleModule.dll_27DF225A00304A06.mvfrm
Library\Bee\artifacts\mvdfrm\UnityEngine.AudioModule.dll_C31495110203F2CA.mvfrm
Library\Bee\artifacts\mvdfrm\UnityEngine.ClothModule.dll_29FCF20BDC20D1AE.mvfrm
Library\Bee\artifacts\mvdfrm\UnityEngine.CoreModule.dll_7F4EEC2C26A05B7F.mvfrm
Library\Bee\artifacts\mvdfrm\UnityEngine.CrashReportingModule.dll_29547AAD74E99477.mvfrm
Library\Bee\artifacts\mvdfrm\UnityEngine.DirectorModule.dll_8CCB8E008398115C.mvfrm
Library\Bee\artifacts\mvdfrm\UnityEngine.dll_44A78224E0E6D5E6.mvfrm
Library\Bee\artifacts\mvdfrm\UnityEngine.DSPGraphModule.dll_921CEF69F5F8E27D.mvfrm
Library\Bee\artifacts\mvdfrm\UnityEngine.GameCenterModule.dll_5F327D4C3D51C6D7.mvfrm
Library\Bee\artifacts\mvdfrm\UnityEngine.GIModule.dll_4CECC286F7CAE442.mvfrm
Library\Bee\artifacts\mvdfrm\UnityEngine.GridModule.dll_5CC0081A3EF4F176.mvfrm
Library\Bee\artifacts\mvdfrm\UnityEngine.HotReloadModule.dll_5881F9EAA377635A.mvfrm
Library\Bee\artifacts\mvdfrm\UnityEngine.ImageConversionModule.dll_7CBEAF38DD4FDF25.mvfrm
Library\Bee\artifacts\mvdfrm\UnityEngine.IMGUIModule.dll_FB743477C83586AB.mvfrm
Library\Bee\artifacts\mvdfrm\UnityEngine.InputLegacyModule.dll_B9243D789821FFF7.mvfrm
Library\Bee\artifacts\mvdfrm\UnityEngine.InputModule.dll_298A5CC1783C176E.mvfrm
Library\Bee\artifacts\mvdfrm\UnityEngine.JSONSerializeModule.dll_53DE6D8E6E9E863C.mvfrm
Library\Bee\artifacts\mvdfrm\UnityEngine.LocalizationModule.dll_A979F1422A278EC9.mvfrm
Library\Bee\artifacts\mvdfrm\UnityEngine.ParticleSystemModule.dll_7C66C3F9E2FB2005.mvfrm
Library\Bee\artifacts\mvdfrm\UnityEngine.PerformanceReportingModule.dll_80A4BC7177E52F3E.mvfrm
Library\Bee\artifacts\mvdfrm\UnityEngine.Physics2DModule.dll_23DF2BD569413F6D.mvfrm
Library\Bee\artifacts\mvdfrm\UnityEngine.PhysicsModule.dll_F467CD680AB83ADB.mvfrm
Library\Bee\artifacts\mvdfrm\UnityEngine.ProfilerModule.dll_BF11C7371CF19869.mvfrm
Library\Bee\artifacts\mvdfrm\UnityEngine.RuntimeInitializeOnLoadManagerInitializerModule.dll_A0C9F3F6C8250A36.mvfrm
Library\Bee\artifacts\mvdfrm\UnityEngine.ScreenCaptureModule.dll_6DC61B13830AB29E.mvfrm
Library\Bee\artifacts\mvdfrm\UnityEngine.SharedInternalsModule.dll_00CFEE0E547DDA75.mvfrm
Library\Bee\artifacts\mvdfrm\UnityEngine.SpriteMaskModule.dll_485EEFDC5EC15C51.mvfrm
Library\Bee\artifacts\mvdfrm\UnityEngine.SpriteShapeModule.dll_41404FB4B5D28210.mvfrm
Library\Bee\artifacts\mvdfrm\UnityEngine.StreamingModule.dll_8BCE293517CBFF16.mvfrm
Library\Bee\artifacts\mvdfrm\UnityEngine.SubstanceModule.dll_68793D7E631EFD24.mvfrm
Library\Bee\artifacts\mvdfrm\UnityEngine.SubsystemsModule.dll_B30C563E2D094464.mvfrm
Library\Bee\artifacts\mvdfrm\UnityEngine.TerrainModule.dll_0EAE48D6E07683C9.mvfrm
Library\Bee\artifacts\mvdfrm\UnityEngine.TerrainPhysicsModule.dll_7CE16CCCFC3E1A92.mvfrm
Library\Bee\artifacts\mvdfrm\UnityEngine.TextCoreFontEngineModule.dll_0BF1DC436255121D.mvfrm
Library\Bee\artifacts\mvdfrm\UnityEngine.TextCoreTextEngineModule.dll_53DA12B4F1D8CB3B.mvfrm
Library\Bee\artifacts\mvdfrm\UnityEngine.TextRenderingModule.dll_97058D1E3A423293.mvfrm
Library\Bee\artifacts\mvdfrm\UnityEngine.TilemapModule.dll_ADAAB057F83364D2.mvfrm
Library\Bee\artifacts\mvdfrm\UnityEngine.TLSModule.dll_9FB832116BCBDCEF.mvfrm
Library\Bee\artifacts\mvdfrm\UnityEngine.UIElementsModule.dll_B74AB7A63035805B.mvfrm
Library\Bee\artifacts\mvdfrm\UnityEngine.UIElementsNativeModule.dll_57C9CA9EC63EACD2.mvfrm
Library\Bee\artifacts\mvdfrm\UnityEngine.UIModule.dll_B02417A6B86301D4.mvfrm
Library\Bee\artifacts\mvdfrm\UnityEngine.UmbraModule.dll_3DE941298F2A9E3D.mvfrm
Library\Bee\artifacts\mvdfrm\UnityEngine.UNETModule.dll_11F5341573AF50F8.mvfrm
Library\Bee\artifacts\mvdfrm\UnityEngine.UnityAnalyticsCommonModule.dll_1BE379B591CDCD9C.mvfrm
Library\Bee\artifacts\mvdfrm\UnityEngine.UnityAnalyticsModule.dll_9C0634C38F227201.mvfrm
Library\Bee\artifacts\mvdfrm\UnityEngine.UnityConnectModule.dll_D8F035E8DBABC9B5.mvfrm
Library\Bee\artifacts\mvdfrm\UnityEngine.UnityCurlModule.dll_0A55DD16385839C5.mvfrm
Library\Bee\artifacts\mvdfrm\UnityEngine.UnityTestProtocolModule.dll_9CFE9B6BBD5C30B3.mvfrm
Library\Bee\artifacts\mvdfrm\UnityEngine.UnityWebRequestAssetBundleModule.dll_E6926595A16AAD92.mvfrm
Library\Bee\artifacts\mvdfrm\UnityEngine.UnityWebRequestAudioModule.dll_F8A1104FFE4FF9D6.mvfrm
Library\Bee\artifacts\mvdfrm\UnityEngine.UnityWebRequestModule.dll_8E5DB6E2E84479A4.mvfrm
Library\Bee\artifacts\mvdfrm\UnityEngine.UnityWebRequestTextureModule.dll_ABC7F04D93A7C66B.mvfrm
Library\Bee\artifacts\mvdfrm\UnityEngine.UnityWebRequestWWWModule.dll_1E9C5810E19887A7.mvfrm
Library\Bee\artifacts\mvdfrm\UnityEngine.VehiclesModule.dll_048E877FFDC1E0F7.mvfrm
Library\Bee\artifacts\mvdfrm\UnityEngine.VFXModule.dll_2096CA804239465C.mvfrm
Library\Bee\artifacts\mvdfrm\UnityEngine.VideoModule.dll_E81E197BC4960E6F.mvfrm
Library\Bee\artifacts\mvdfrm\UnityEngine.VRModule.dll_02F63E2C5A1D874C.mvfrm
Library\Bee\artifacts\mvdfrm\UnityEngine.WebGLModule.dll_62810A1FF3DA048D.mvfrm
Library\Bee\artifacts\mvdfrm\UnityEngine.WindModule.dll_F59DC754B7D6D9E8.mvfrm
Library\Bee\artifacts\mvdfrm\UnityEngine.XRModule.dll_35B50130E357D4AA.mvfrm